{
    "version" : 2,
    "fileList": [
        {
            "name": "First File",
            "version": 1, 
            "url": "https://bitbucket.org/gamersroof/test-repo/downloads/scene_bundle_1"
        },{
            "name": "Second file",
            "version": 1,
            "url": "https://bitbucket.org/gamersroof/test-repo/downloads/bundle_1"
        }
    ]
}